0 7 4974
1 21 4939
2 22 4916
3 27 4890
4 44 4887
5 48 4868
6 52 4849
7 59 4842
8 70 4824
9 88 4657
10 92 4602
11 94 4585
12 97 4514
13 100 4493
14 105 4484
15 108 4416
16 126 4406
17 131 4398
18 135 4374
19 142 4347
20 156 4298
21 163 4257
22 179 4228
23 183 4215
24 189 4124
25 209 4097
26 229 4089
27 249 4086
28 252 4057
29 253 4050
30 255 3922
31 266 3899
32 270 3865
33 273 3859
34 282 3840
35 291 3753
36 293 3678
37 311 3663
38 318 3661
39 336 3646
40 351 3615
41 361 3604
42 375 3601
43 385 3573
44 386 3553
45 398 3542
46 416 3533
47 434 3444
48 452 3438
49 470 3423
50 471 3379
51 487 3337
52 497 3333
53 513 3322
54 527 3309
55 541 3229
56 546 3192
57 548 3158
58 566 3136
59 579 3085
60 594 3080
61 604 3051
62 624 3051
63 629 3047
64 643 3021
65 650 3010
66 659 3000
67 661 2964
68 677 2941
69 678 2910
70 688 2893
71 696 2879
72 703 2759
73 712 2641
74 723 2637
75 735 2636
76 741 2632
77 761 2623
78 770 2592
79 780 2562
80 793 2557
81 805 2551
82 819 2545
83 826 2516
84 838 2489
85 853 2472
86 865 2462
87 876 2437
88 889 2432
89 901 2420
90 905 2373
91 925 2353
92 937 2350
93 946 2330
94 952 2296
95 970 2282
96 983 2264
97 989 2250
98 997 2231
99 1012 2215
100 1025 2213
101 1037 2171
102 1052 2164
103 1072 2134
104 1074 2116
105 1075 2105
106 1089 2098
107 1091 2083
108 1097 2040
109 1113 1965
110 1114 1942
111 1121 1899
112 1139 1899
113 1149 1880
114 1150 1880
115 1167 1845
116 1183 1821
117 1199 1738
118 1211 1724
119 1224 1717
120 1234 1713
121 1247 1655
122 1254 1622
123 1259 1612
124 1277 1600
125 1285 1560
126 1293 1548
127 1308 1494
128 1316 1452
129 1319 1439
130 1321 1439
131 1330 1423
132 1337 1423
133 1344 1401
134 1352 1362
135 1358 1359
136 1371 1278
137 1386 1275
138 1401 1234
139 1409 1156
140 1418 1108
141 1421 1037
142 1433 1006
143 1451 996
144 1453 984
145 1471 969
146 1473 932
147 1487 918
148 1498 910
149 1510 893
150 1526 866
151 1544 840
152 1561 810
153 1564 807
154 1582 784
155 1589 732
156 1599 725
157 1617 693
158 1627 691
159 1641 691
160 1657 690
161 1660 686
162 1668 680
163 1680 678
164 1697 675
165 1699 675
166 1714 673
167 1732 673
168 1751 669
169 1766 666
170 1785 665
171 1787 661
172 1790 658
173 1791 658
174 1811 651
175 1812 650
176 1813 649
177 1831 644
178 1842 641
179 1851 641
180 1858 639
181 1860 636
182 1865 636
183 1881 631
184 1891 631
185 1911 629
186 1913 629
187 1915 625
188 1933 624
189 1945 621
190 1957 618
191 1965 618
192 1966 610
193 1984 609
194 1993 609
195 1995 608
196 1999 607
197 2013 606
198 2018 603
199 2022 600
200 2039 599
201 2043 597
202 2056 596
203 2058 592
204 2067 590
205 2078 586
206 2088 584
207 2101 577
208 2116 575
209 2118 575
210 2125 575
211 2131 571
212 2145 569
213 2159 568
214 2178 568
215 2179 567
216 2196 565
217 2209 560
218 2215 560
219 2222 555
220 2238 550
221 2254 550
222 2268 548
223 2270 547
224 2272 546
225 2284 544
226 2301 538
227 2319 536
228 2333 536
229 2347 534
230 2349 531
231 2365 527
232 2384 524
233 2395 514
234 2401 513
235 2412 512
236 2414 511
237 2422 510
238 2437 510
239 2444 508
240 2447 501
241 2459 500
242 2462 499
243 2480 498
244 2483 489
245 2484 488
246 2490 487
247 2509 483
248 2514 481
249 2519 479
250 2525 477
251 2543 476
252 2550 475
253 2567 473
254 2571 470
255 2589 470
256 2601 470
257 2613 467
258 2630 467
259 2636 465
260 2652 461
261 2654 460
262 2668 454
263 2670 453
264 2671 453
265 2687 448
266 2704 440
267 2719 440
268 2721 438
269 2737 435
270 2750 430
271 2763 428
272 2776 428
273 2790 428
274 2803 426
275 2804 426
276 2810 424
277 2820 422
278 2838 422
279 2846 421
280 2865 414
281 2867 411
282 2878 411
283 2896 410
284 2915 410
285 2922 409
286 2935 408
287 2953 408
288 2968 407
289 2984 404
290 3000 404
291 3010 403
292 3021 394
293 3035 393
294 3052 391
295 3054 389
296 3068 376
297 3087 376
298 3106 373
299 3108 367
300 3113 364
301 3116 358
302 3129 356
303 3134 355
304 3137 351
305 3155 350
306 3164 347
307 3178 343
308 3193 340
309 3210 338
310 3229 336
311 3239 335
312 3253 331
313 3271 331
314 3275 330
315 3295 327
316 3311 326
317 3318 326
318 3329 324
319 3333 324
320 3343 324
321 3357 318
322 3376 316
323 3387 310
324 3393 307
325 3396 299
326 3403 297
327 3411 295
328 3422 295
329 3442 294
330 3448 294
331 3461 290
332 3480 286
333 3482 286
334 3485 285
335 3486 283
336 3489 283
337 3503 281
338 3513 280
339 3515 277
340 3534 273
341 3544 270
342 3561 269
343 3580 269
344 3587 269
345 3589 268
346 3599 264
347 3618 262
348 3620 261
349 3632 260
350 3648 258
351 3650 257
352 3652 255
353 3663 252
354 3664 251
355 3665 249
356 3666 246
357 3686 239
358 3706 238
359 3715 235
360 3722 232
361 3732 231
362 3733 230
363 3753 230
364 3761 228
365 3765 227
366 3779 225
367 3790 224
368 3808 222
369 3818 221
370 3830 221
371 3834 216
372 3842 214
373 3844 212
374 3856 211
375 3873 210
376 3879 209
377 3881 208
378 3897 204
379 3909 204
380 3923 203
381 3929 202
382 3946 200
383 3952 199
384 3958 199
385 3976 198
386 3990 195
387 4001 195
388 4005 193
389 4006 192
390 4017 191
391 4024 191
392 4039 187
393 4058 186
394 4075 185
395 4085 184
396 4090 182
397 4099 180
398 4115 179
399 4124 177
400 4143 177
401 4151 169
402 4171 168
403 4180 166
404 4192 165
405 4196 160
406 4211 160
407 4222 150
408 4228 150
409 4242 150
410 4248 150
411 4250 150
412 4268 149
413 4269 149
414 4283 149
415 4293 149
416 4297 149
417 4298 149
418 4317 149
419 4318 148
420 4337 148
421 4352 148
422 4366 148
423 4377 148
424 4384 148
425 4397 148
426 4414 147
427 4417 147
428 4422 147
429 4440 146
430 4456 146
431 4473 146
432 4476 146
433 4478 146
434 4491 145
435 4495 145
436 4513 145
437 4521 145
438 4537 145
439 4538 145
440 4539 144
441 4548 144
442 4549 144
443 4559 144
444 4579 144
445 4589 144
446 4609 143
447 4629 143
448 4646 143
449 4652 143
450 4660 142
451 4672 142
452 4691 142
453 4696 141
454 4715 141
455 4732 141
456 4738 141
457 4750 141
458 4756 140
459 4764 140
460 4775 140
461 4785 140
462 4798 140
463 4816 140
464 4826 140
465 4831 140
466 4842 139
467 4844 139
468 4854 139
469 4869 139
470 4874 138
471 4892 138
472 4904 138
473 4920 138
474 4940 138
475 4947 138
476 4958 138
477 4962 138
478 4975 137
479 4989 137
480 4993 136
481 5011 136
482 5018 136
483 5038 135
484 5040 135
485 5055 135
486 5063 134
487 5076 134
488 5090 134
489 5100 134
490 5114 134
491 5119 134
492 5120 134
493 5133 133
494 5146 133
495 5165 133
496 5184 133
497 5201 133
498 5208 133
499 5227 133
500 5231 132
501 5243 132
502 5258 132
503 5274 132
504 5288 132
505 5291 132
506 5299 131
507 5309 131
508 5320 131
509 5339 131
510 5352 131
511 5359 131
512 5378 131
513 5391 130
514 5409 130
515 5425 130
516 5427 130
517 5433 130
518 5448 130
519 5468 130
520 5476 130
521 5481 130
522 5493 130
523 5498 130
524 5513 130
525 5524 130
526 5530 130
527 5536 129
528 5555 129
529 5561 129
530 5562 129
531 5563 129
532 5579 128
533 5594 128
534 5601 128
535 5603 128
536 5612 127
537 5630 127
538 5646 127
539 5649 127
540 5665 127
541 5685 127
542 5703 127
543 5717 127
544 5720 127
545 5722 126
546 5735 126
547 5740 126
548 5758 126
549 5774 126
550 5783 126
551 5799 125
552 5806 125
553 5812 125
554 5817 125
555 5830 125
556 5837 125
557 5842 125
558 5859 124
559 5873 124
560 5875 124
561 5878 124
562 5893 124
563 5912 124
564 5915 124
565 5931 124
566 5942 123
567 5962 123
568 5968 123
569 5976 123
570 5992 123
571 6001 123
572 6004 123
573 6009 123
574 6020 123
575 6037 123
576 6045 122
577 6064 122
578 6071 122
579 6073 122
580 6079 122
581 6098 122
582 6104 121
583 6110 121
584 6119 121
585 6124 121
586 6136 121
587 6148 121
588 6162 120
589 6176 120
590 6191 120
591 6193 120
592 6204 120
593 6214 120
594 6233 119
595 6252 119
596 6271 119
597 6291 119
598 6307 118
599 6321 118
600 6341 118
601 6348 118
602 6361 118
603 6369 117
604 6371 117
605 6379 117
606 6399 117
607 6410 117
608 6415 117
609 6433 116
610 6453 116
611 6465 116
612 6467 116
613 6486 116
614 6504 116
615 6519 115
616 6533 115
617 6551 115
618 6553 114
619 6560 114
620 6561 114
621 6575 114
622 6577 113
623 6589 113
624 6600 113
625 6609 113
626 6610 113
627 6627 112
628 6633 112
629 6635 112
630 6645 112
631 6657 112
632 6665 112
633 6682 112
634 6692 112
635 6697 112
636 6716 112
637 6717 112
638 6725 112
639 6741 111
640 6744 111
641 6764 111
642 6777 111
643 6791 110
644 6810 110
645 6824 110
646 6833 110
647 6838 109
648 6854 109
649 6866 109
650 6872 109
651 6885 109
652 6892 109
653 6906 108
654 6921 108
655 6936 108
656 6954 108
657 6958 108
658 6962 108
659 6972 108
660 6975 108
661 6985 108
662 6997 108
663 7007 107
664 7017 107
665 7020 107
666 7028 107
667 7032 106
668 7049 106
669 7052 106
670 7057 106
671 7073 106
672 7078 106
673 7090 105
674 7107 105
675 7116 105
676 7123 104
677 7129 104
678 7148 104
679 7166 104
680 7171 104
681 7184 103
682 7192 103
683 7195 103
684 7203 103
685 7204 103
686 7221 103
687 7224 102
688 7231 102
689 7248 102
690 7256 102
691 7266 102
692 7276 102
693 7288 101
694 7292 101
695 7304 101
696 7317 101
697 7333 101
698 7351 100
699 7363 100
700 7375 100
701 7384 100
702 7393 100
703 7395 100
704 7403 100
705 7419 99
706 7424 99
707 7444 99
708 7448 99
709 7454 99
710 7458 98
711 7466 98
712 7476 98
713 7491 98
714 7500 97
715 7520 97
716 7532 97
717 7535 97
718 7541 97
719 7553 96
720 7560 96
721 7578 96
722 7588 96
723 7608 96
724 7619 96
725 7636 96
726 7637 95
727 7643 95
728 7657 95
729 7663 95
730 7667 95
731 7672 94
732 7680 94
733 7694 94
734 7695 94
735 7707 94
736 7715 94
737 7725 94
738 7729 94
739 7749 94
740 7754 94
741 7765 94
742 7772 94
743 7785 94
744 7799 93
745 7809 93
746 7825 93
747 7826 93
748 7837 93
749 7853 93
750 7858 92
751 7868 92
752 7870 92
753 7874 92
754 7887 92
755 7888 92
756 7891 92
757 7899 92
758 7913 91
759 7917 91
760 7922 91
761 7937 91
762 7944 91
763 7961 90
764 7962 90
765 7965 90
766 7966 90
767 7967 90
768 7987 90
769 8006 89
770 8008 89
771 8024 89
772 8042 89
773 8061 88
774 8067 88
775 8070 88
776 8072 87
777 8080 87
778 8098 87
779 8099 87
780 8117 87
781 8130 87
782 8136 87
783 8145 87
784 8148 87
785 8167 87
786 8173 86
787 8189 86
788 8201 86
789 8211 86
790 8216 86
791 8234 86
792 8239 86
793 8243 86
794 8246 86
795 8247 85
796 8255 85
797 8273 85
798 8274 85
799 8291 84
800 8305 84
801 8312 84
802 8320 84
803 8329 83
804 8332 83
805 8344 83
806 8363 83
807 8383 83
808 8388 82
809 8395 82
810 8397 82
811 8414 82
812 8429 82
813 8446 81
814 8450 81
815 8463 81
816 8482 81
817 8485 81
818 8489 81
819 8499 81
820 8503 81
821 8516 81
822 8520 80
823 8524 80
824 8539 80
825 8559 80
826 8569 80
827 8584 80
828 8599 80
829 8609 80
830 8614 80
831 8634 79
832 8653 79
833 8662 79
834 8675 79
835 8678 79
836 8698 79
837 8716 79
838 8731 79
839 8738 78
840 8751 78
841 8764 78
842 8780 78
843 8785 78
844 8789 77
845 8793 77
846 8797 77
847 8799 77
848 8813 77
849 8832 76
850 8851 76
851 8861 76
852 8871 76
853 8882 75
854 8894 75
855 8896 75
856 8903 74
857 8912 74
858 8930 74
859 8949 74
860 8965 74
861 8980 74
862 8985 73
863 9003 73
864 9021 73
865 9028 73
866 9045 73
867 9046 72
868 9060 72
869 9075 72
870 9094 72
871 9101 71
872 9117 71
873 9124 71
874 9137 71
875 9157 71
876 9169 71
877 9187 70
878 9206 70
879 9214 70
880 9229 70
881 9238 70
882 9242 70
883 9255 70
884 9273 70
885 9280 70
886 9286 69
887 9290 69
888 9294 69
889 9295 69
890 9302 69
891 9306 68
892 9320 68
893 9322 68
894 9331 68
895 9342 68
896 9351 68
897 9370 67
898 9379 67
899 9390 67
900 9401 67
901 9406 66
902 9419 66
903 9421 66
904 9427 66
905 9439 66
906 9443 66
907 9445 65
908 9448 65
909 9456 65
910 9471 65
911 9474 65
912 9481 65
913 9488 65
914 9506 64
915 9524 64
916 9528 64
917 9530 64
918 9550 63
919 9552 62
920 9559 62
921 9560 62
922 9572 62
923 9587 62
924 9588 62
925 9594 61
926 9603 61
927 9606 61
928 9623 61
929 9633 60
930 9638 60
931 9644 60
932 9645 60
933 9652 60
934 9658 60
935 9677 60
936 9690 59
937 9709 59
938 9715 59
939 9735 59
940 9740 58
941 9741 58
942 9758 58
943 9761 58
944 9766 58
945 9767 58
946 9781 58
947 9783 57
948 9788 57
949 9794 57
950 9809 57
951 9821 57
952 9828 57
953 9829 57
954 9834 56
955 9854 56
956 9860 56
957 9863 56
958 9879 56
959 9893 56
960 9910 55
961 9917 55
962 9925 55
963 9931 55
964 9950 55
965 9963 55
966 9965 55
967 9966 55
968 9985 54
969 9996 54
970 10002 54
971 10008 54
972 10026 54
973 10040 53
974 10049 53
975 10069 53
976 10072 53
977 10081 53
978 10100 53
979 10108 53
980 10127 53
981 10141 52
982 10148 52
983 10167 52
984 10177 52
985 10178 52
986 10197 52
987 10198 52
988 10217 52
989 10223 52
990 10243 52
991 10260 51
992 10278 51
993 10286 51
994 10304 51
995 10318 51
996 10335 51
997 10343 51
998 10360 50
999 10370 50
